{
  "name": "all-clients",
  "base": "extended-client",
  "idInjection": true,
  "options": {
    "validateUpsert": true,
    "postgresql": {
      "table": "all_clients"
    }
  },
  "properties": {
    "model": {
      "type": "string"
    }
  },
  "validations": [],
  "relations": {},
  "acls": [],
  "methods": {}
}
